[ERROR] 2021-08-16 17:59:34.708 Controller:32 -  error UnsupportedOperationException 
[FATAL] 2021-08-16 17:59:34.708 Controller:33 -  fatal UnsupportedOperationException 
[ERROR] 2021-08-16 17:59:34.709 Controller:38 -  error UnsupportedOperationException 
[FATAL] 2021-08-16 17:59:34.710 Controller:39 -  fatal UnsupportedOperationException 
[ERROR] 2021-08-16 17:59:34.710 Controller:44 -  error UnsupportedOperationException 
[FATAL] 2021-08-16 17:59:34.711 Controller:45 -  fatal UnsupportedOperationException 
[ERROR] 2021-08-16 17:59:34.715 Controller:50 -  error UnsupportedOperationException 
[FATAL] 2021-08-16 17:59:34.716 Controller:51 -  fatal UnsupportedOperationException 
[ERROR] 2021-08-16 18:04:23.466 Controller:32 -  error UnsupportedOperationException 
[FATAL] 2021-08-16 18:04:23.467 Controller:33 -  fatal UnsupportedOperationException 
[ERROR] 2021-08-16 18:04:23.467 Controller:38 -  error UnsupportedOperationException 
[FATAL] 2021-08-16 18:04:23.468 Controller:39 -  fatal UnsupportedOperationException 
[ERROR] 2021-08-16 18:04:23.468 Controller:44 -  error UnsupportedOperationException 
[FATAL] 2021-08-16 18:04:23.469 Controller:45 -  fatal UnsupportedOperationException 
[ERROR] 2021-08-16 18:04:23.469 Controller:50 -  error UnsupportedOperationException 
[FATAL] 2021-08-16 18:04:23.470 Controller:51 -  fatal UnsupportedOperationException 
